{
  "menus":[
    {
      "section":"Resources",
      "items":[
        {
          "title":"Area",
          "url":"/admin/area"
        },
        {
          "title":"Country",
          "url":"/admin/country"
        },
        {
          "title":"Category (Providing)",
          "url":"/admin/category"
        },
        {
          "title":"Event Category",
          "url":"/admin/event-categories"
        },
        {
          "title":"Project",
          "url":"/admin/project"
        },
        {
          "title":"Gallery",
          "url":"/admin/gallery"
        },
        {
          "title":"Industry News",
          "url":"/admin/news"
        }
      ]
    },
    {
      "section":"Extras",
      "items":[
        {
          "title":"Activity Logs",
          "url":"/admin/activitylogs"
        },
        {
          "title":"Users",
          "url":"/admin/users"
        },
        {
          "title":"Settings",
          "url":"/admin/settings"
        }
      ]
    }
  ]
}